{
  "hash": "d0fc4203197f0ec778b99df543393b22",
  "result": {
    "markdown": "---\ntitle: \"Days 5. A replication crisis and the ways out\"\nHost: \"IKER (CNRS), Baiona\"\nabstract: These slides present, first, the replication crisis many scientific fields are facing, and its causes. Then, it provides solutions around open science, such as registered reports, Open Science Foundation, etc. Finally, we provide with some ways out the replication crisis beyond frequentist reform.\nauthor: \n  - name: Ander Egurtzegi\n    affiliation: [CNRS - IKER UMR 5478]\n  - name: Iñigo Urrestarazu-Porta\n    affiliation: [CNRS - IKER UMR 5478, UPV/EHU, UPPA]\nurl: https://urrestarazu.gitlab.io/teaching-stats/day-5-glmm-replication-crisis#/title-slide\nimage: cover.png\ncategories: [correlation, causation, frequentis point estimation, bivariate regression, multivariate regression, interaction, generalized linear models, logistic regression, poisson regression, mixed effects models, r-square, p-values, nhst, power analysis.]\nengine: knitr\n---\n\n\n\nClick [here](https://urrestarazu.gitlab.io/teaching-stats/day-5-glmm-replication-crisis#/title-slide) for the link to the slide.\n\n<iframe src=\"https://urrestarazu.gitlab.io/teaching-stats/day-5-glmm-replication-crisis#/title-slide\" width=\"100%\" height=\"450px\"></iframe>\n\n\n\n",
    "supporting": [],
    "filters": [
      "rmarkdown/pagebreak.lua"
    ],
    "includes": {},
    "engineDependencies": {},
    "preserve": {},
    "postProcess": true
  }
}