[
  {
    "listing": "/lets-talk-stats-index.html",
    "items": [
      "/1-basic-concepts.html",
      "/2-probability-theory.html",
      "/correlation-and-regression.html",
      "/5-open-science-and-replication-crisis.html"
    ]
  },
  {
    "listing": "/lets-talk-r-index.html",
    "items": [
      "/1-intro-to-r.html",
      "/2-dataviz-and-ggplot.html",
      "/3-coding-practices.html",
      "/4-tidyverse.html",
      "/5-frequentist-regression-analysis-with-r.html"
    ]
  }
]